…
```
## [1] 27.45098
```

We can also look at the number and percent of missings in each case, and in each variable with `summary_missing_case`, and `summary_missing_var`.


```r
ggmissing::summary_missing_case(airquality)
```

```
## # A tibble: 153 × 3
##     case n_missing  percent
##    <int>     <int>    <dbl>
## 1      1         0  0.00000
## 2      2         0  0.00000
## 3      3         0  0.00000
## 4      4         0  0.00000
## 5      5         2 33.33333
## 6      6         1 16.66667
## 7      7         0  0.00000
## 8      8         0  0.00000
## 9      9         0  0.00000
## 10    10         1 16.66667
## # ... with 143 more rows
```
…
